{
    "hosting": {
        "site": "maskmapthai",
        "public": "firebase",
        "ignore": [
            "firebase.json",
            "**/.*",
            "**/node_modules/**"
        ],
        "rewrites": [{
            "source": "**",
            "destination": "/index.html"
        }]
    }
}